Take Home Exercise 3
…
choc_grouped <- choc_nec[,c(3:5)] %>% 
  group_by(company_location) %>% 
  summarise(
    cocoa_percent = mean(cocoa_percent),
    rating = mean(rating)
  )

Lastly, for the prep we need to order the locations by highest rating to lowest.

Show code

choc_grouped <- choc_grouped[order(-choc_grouped$rating),]
choc_grouped

# A tibble: 66 x 3
   company_location cocoa_percent rating
   <chr>                    <dbl>  <dbl>
 1 Chile                    0.7     3.75
 2 Fiji                     0.8     3.42
 3 Denmark                  0.711   3.39
 4 Switzerland              0.733   3.38
 5 Poland                   0.719   3.38
 6 Colombia                 0.708   3.35
 7 Vietnam                  0.745   3.35
 8 Guatemala                0.727   3.34
 9 Australia                0.716   3.34
10 U.A.E.                   0.72    3.33
# ... with 56 more rows
…
